{
    "GO": {
        "user": "admin702",
        "pass": "GlobalProc",
        "url_go": "https://v2adquirenciaarg.web.qa.global.globalprocessing.net.ar/"
    },
    "GBATCH": {
        "user": "adminbatch",
        "pass": "GlobalProc#1",
        "url_gbatch": "https://v2batch.web.qa.global.globalprocessing.net.ar/",
		"descripcion":"Entidad 702"  
    },
    "DB": {
        "user": "xxxxxxxx",
        "pass": "xxxxxxxx",
        "host": "gpwf-aq-qa-ent.cunfmyfynl3c.us-east-1.rds.amazonaws.com",
        "serviceName": "GP247",
        "port": "1521"
    },
    "DBPARAM": {
        "user": "qa_param",
        "pass": "xxxxxxxx",
        "host": "parametria-qa.cvhla41mhkl1.us-east-1.rds.amazonaws.com",
        "SID": "PARAMQA"
    },
    "OPI_CONFIG": {
		"privateKey": "./OPI_Files/opensshkey.pem",
		"user": "root",
        "host": "10.72.0.22",
        "port": "22"
    },
	"ENTIDAD":{
		"id_entidad": "702",
		"esquema_db":"QA_ENTIDAD702."
	}
}